Microbiome: 16S Data Visualization/Analysis - SOMRC Workshops
…
dataDir = "../../static/data/"
# import OTU table
otu <- read_tsv(paste(dataDir, "relman2017_samples.otu_table.txt", sep="/"))

## Parsed with column specification:
## cols(
##   .default = col_integer(),
##   OTUId = col_character()
## )

## See spec(...) for full column specifications.

otu

## # A tibble: 1,151 x 101
##    OTUId SRR5944960 SRR5944971 SRR5944984 SRR5944985 SRR5944986 SRR5944990
##    <chr>      <int>      <int>      <int>      <int>      <int>      <int>
##  1 OTU_…      10050          5        110        527          2        102
##  2 OTU_1      48542      51618         22          3          8         13
##  3 OTU_…       9091          4         47        123         11         32
##  4 OTU_…       4330          0          1          0          0          0
##  5 OTU_…       7501          0          1          1          2          1
##  6 OTU_…       6794          0          0          0          2          0
##  7 OTU_…       1572          0          0          0          0          0
##  8 OTU_…      10450         14       1120        647         58        564
##  9 OTU_…       4077          0        992        608         55         40
## 10 OTU_…        514          0          0          0          2          0
## # ... with 1,141 more rows, and 94 more variables: SRR5944998 <int>,
## #   SRR5945004 <int>, SRR5945006 <int>, SRR5945007 <int>,
## #   SRR5945019 <int>, SRR5945036 <int>, SRR5945037 <int>,
## #   SRR5945040 <int>, SRR5945041 <int>, SRR5945042 <int>,
## #   SRR5945062 <int>, SRR5945067 <int>, SRR5945072 <int>,
## #   SRR5945075 <int>, SRR5945093 <int>, SRR5945100 <int>,
## #   SRR5945101 <int>, SRR5945103 <int>, SRR5945121 <int>,
## #   SRR5945137 <int>, SRR5945141 <int>, SRR5970594 <int>,
## #   SRR5970602 <int>, SRR5970613 <int>, SRR5970633 <int>,
…
## Parsed with column specification:
## cols(
##   X1 = col_character(),
##   domain = col_character(),
##   phylum = col_character(),
##   class = col_character(),
##   order = col_character(),
##   family = col_character(),
##   genus = col_character()
## )

taxonomy

## # A tibble: 1,225 x 7
##    X1     domain   phylum     class     order       family       genus    
##    <chr>  <chr>    <chr>      <chr>     <chr>       <chr>        <chr>    
##  1 OTU_1  Bacteria Firmicutes Bacilli   Lactobacil… Lactobacill… Lactobac…
##  2 OTU_2  Bacteria Firmicutes Bacilli   Lactobacil… Lactobacill… Lactobac…
##  3 OTU_3  Bacteria Actinobac… Actinoba… Bifidobact… Bifidobacte… Gardnere…
##  4 OTU_4  Bacteria Firmicutes Bacilli   Lactobacil… Lactobacill… Lactobac…
##  5 OTU_5  Bacteria Firmicutes Bacilli   Lactobacil… Lactobacill… Lactobac…
##  6 OTU_6  Bacteria Firmicutes Bacilli   Lactobacil… Lactobacill… Lactobac…
##  7 OTU_7  Bacteria Actinobac… Actinoba… Bifidobact… Bifidobacte… Gardnere…
##  8 OTU_8  Bacteria Firmicutes Bacilli   Lactobacil… Lactobacill… Lactobac…
##  9 OTU_9  Bacteria Firmicutes Negativi… Selenomona… Veillonella… Megaspha…
## 10 OTU_10 Bacteria Firmicutes Bacilli   Lactobacil… Lactobacill… Lactobac…
## # ... with 1,215 more rows
…
## Parsed with column specification:
## cols(
##   sample = col_character(),
##   age = col_integer(),
##   gest_day_collection = col_integer(),
##   indication_for_PTB = col_character(),
##   race = col_character(),
##   term_vs_preterm_delivery = col_character()
## )

metadata

## # A tibble: 100 x 6
##    sample    age gest_day_collect… indication_for_… race  term_vs_preterm…
##    <chr>   <int>             <int> <chr>            <chr> <chr>           
##  1 SRR594…    38                45 PPROM            White Preterm         
##  2 SRR597…    35                77 not_applicable   Asian Term            
##  3 SRR594…    41                79 not_applicable   White Term            
##  4 SRR597…    31                83 not_applicable   White Term            
##  5 SRR594…    32                91 Other            White Preterm         
##  6 SRR597…    35                92 not_applicable   Asian Term            
##  7 SRR594…    32                98 Other            White Preterm         
##  8 SRR597…    31               101 not_applicable   White Term            
##  9 SRR594…    32               107 PPROM            White Preterm         
## 10 SRR597…    31               116 not_applicable   White Term            
## # ... with 90 more rows
…
